{
  "users": [
    {
      "id": 1,
      "name": "madhan gannarapu",
      "password": "nani",
      "mobileNo": 9963677093,
      "image": "https://avatars2.githubusercontent.com/u/20743181?s=460&v=4"
    },
    {
      "id": 2,
      "name": "mmcv",
      "password": "nani",
      "mobileNo": 9963677093,
      "image": "https://avatars2.githubusercontent.com/u/20743181?s=460&v=4"
    }
  ],
  "students": [
    {
      "id": 1,
      "firstName": "madhan",
      "lastName": "gannarapu",
      "email": "madhan",
      "gender": "male",
      "marks": {
        "quartely": {
          "telugu": 75,
          "hindi": 70,
          "English": 82,
          "maths": 90,
          "science": 70,
          "social": 60
        },
        "halfYearly": {
          "telugu": 75,
          "hindi": 70,
          "English": 82,
          "maths": 90,
          "science": 70,
          "social": 60
        }
      }
    },
    {
      "id": 2,
      "firstName": "nani",
      "lastName": "gg ",
      "email": "madhan",
      "gender": "male",
      "marks": {
        "quartely": {
          "telugu": 75,
          "hindi": 70,
          "English": 82,
          "maths": 90,
          "science": 70,
          "social": 60
        },
        "halfYearly": {
          "telugu": 75,
          "hindi": 70,
          "English": 82,
          "maths": 90,
          "science": 70,
          "social": 60
        }
      }
    },
    {
      "id": 3,
      "firstName": "srihari",
      "lastName": "veeragoni",
      "email": "madhan",
      "gender": "madhan",
      "marks": {
        "quartely": {
          "telugu": 75,
          "hindi": 70,
          "English": 82,
          "maths": 90,
          "science": 70,
          "social": 60
        },
        "halfYearly": {
          "telugu": 75,
          "hindi": 70,
          "English": 82,
          "maths": 90,
          "science": 70,
          "social": 60
        }
      }
    }
  ]
}